## Interface: 11302
## Author: Lag, Proteyer, Arith	
## Version: v1.1.2-beta
## Dependencies: AtlasLootClassic
## LoadOnDemand: 1

## Title: AtlasLootClassic |cFF0099FF[Crafting]|r
## Title-deDE: AtlasLootClassic |cFF0099FF[Berufe]|r
## Title-koKR: AtlasLootClassic |cFF0099FF[전문 기술]|r
## Title-ruRU: AtlasLootClassic |cFF0099FF[Создание]|r
## Title-zhCN: AtlasLootClassic |cFF0099FF[专业制造]|r
## Title-zhTW: AtlasLootClassic |cFF0099FF[商業技能]|r

## Notes: AtlasLoot loot tables of Crafting Items
## Notes-deDE: AtlasLoot Verzeichnisse der Berufsgegenstände
## Notes-esES: Tablas de botín de AtlasLoot para objetos fabricados
## Notes-frFR: Tables de butin AtlasLoot des Objets Fabriqués
## Notes-koKR: AtlasLoot 전문 기술의 전리품 목록
## Notes-ruRU: AtlasLoot таблица добычи на создание предметов
## Notes-zhCN: AtlasLoot 《专业制造》物品信息
## Notes-zhTW: AtlasLoot 商業技能物品資料庫

## X-Category: Map
## X-License: GPL v2

## X-AtlasLootClassic-LootModule: 1

Locales\Locales.xml

data.lua
