## Interface: 11302
## Title: Better Vendor Price
## Notes: Better Vendor Price with stack price information (|cFF99E5FF/bvp config|r)
## Author: MooreaTV moorea@ymail.com
## Version: v1.02.01-classic
## DefaultState: Enabled
## LoadOnDemand: 0
## SavedVariables: betterVendorPriceSaved
## Globe: check-classic
MoLib/MoLib.lua
MoLib/MoLibUI.lua
BetterVendorPrice.lua
