﻿## Interface: 11302
## Author: Lag, Proteyer, Arith	
## Version: v1.1.2-beta
## Dependencies: AtlasLootClassic
## LoadOnDemand: 1

## Title: AtlasLootClassic |cFF0099FF[Dungeons and Raids]|r
## Title-deDE: AtlasLootClassic |cFF0099FF[Instanzen and Raids]|r

## Notes: AtlasLoot loot tables from Dungeons and Raids
## Notes-deDE: AtlasLoot loottabellen für Instanzen und Raids


## X-Category: Map
## X-License: GPL v2

## X-AtlasLootClassic-LootModule: 1

Locales\Locales.xml

data.lua
