## Interface: 11302

## Title: Leatrix Plus
## Title-zhCN: Leatrix Plus [|cffeda55f功能百宝箱|r]
## Title-zhTW: Leatrix Plus [|cffeda55f功能百寶箱|r]

## Notes: Quality of life addon.
## Notes-zhCN: 哆啦A梦的百宝袋
## Notes-zhTW: 哆啦A夢的百寶袋

## Version: 1.13.24
## Author: Leatrix
## SavedVariables: LeaPlusDB

Leatrix_Plus_Library.lua
Leatrix_Plus_Locale.lua
Leatrix_Plus_Sounds.lua
Leatrix_Plus.lua
