﻿## Interface: 11302
## Author: Lag, Proteyer, Arith	
## Version: v1.1.2-beta
## Dependencies: AtlasLootClassic
## LoadOnDemand: 1

## Title: AtlasLootClassic |cFF0099FF[Collections]|r
## Title-deDE: AtlasLootClassic |cFF0099FF[Sammlungen]|r

## Notes: AtlasLoot loot tables from Collections
## Notes-deDE: AtlasLoot Sammlungen


## X-Category: Map
## X-License: GPL v2

## X-AtlasLootClassic-LootModule: 1

Locales\Locales.xml

data.lua
